[
  {
    "question": "What food makes up nearly all (around 99%) of a Giant Panda’s diet?",
    "answers": [
      {
        "answer": "Apple",
        "mark": 0
      },
      {
        "answer": "Banana",
        "mark": 0
      },
      {
        "answer": "Bamboo",
        "mark": 20
      },
      {
        "answer": "Orange",
        "mark": 0
      }
    ]
  },
  {
    "question": "What are female elephants called?",
    "answers": [
      {
        "answer": "Cows",
        "mark": 20
      },
      {
        "answer": "Bulls",
        "mark": 0
      },
      {
        "answer": "Dinosaurs",
        "mark": 0
      },
      {
        "answer": "Monkey",
        "mark": 0
      }
    ]
  },
  {
    "question": "Groups of lions are known as what?",
    "answers": [
      {
        "answer": "Team",
        "mark": 0
      },
      {
        "answer": "Prides",
        "mark": 20
      },
      {
        "answer": "Group",
        "mark": 0
      },
      {
        "answer": "Command",
        "mark": 0
      }
    ]
  },
  {
    "question": "What is the only continent on earth where Giraffes live in the wild?",
    "answers": [
      {
        "answer": "Eurasia",
        "mark": 0
      },
      {
        "answer": "America",
        "mark": 0
      },
      {
        "answer": "Australia",
        "mark": 0
      },
      {
        "answer": "Africa",
        "mark": 20
      }
    ]
  },
  {
    "question": "How many legs does a spider have?",
    "answers": [
      {
        "answer": "4",
        "mark": 0
      },
      {
        "answer": "12",
        "mark": 0
      },
      {
        "answer": "8",
        "mark": 20
      },
      {
        "answer": "6",
        "mark": 0
      }
    ]
  }
]
